####
#
# OBJ File Generated by Meshlab
#
####
# Object 10.obj
#
# Vertices: 342
# Faces: 672
#
####
mtllib 10.mtl
usemtl the_material
vn -255.421066 0.000000 -576.251709
v 235421.109375 86.896103 -27412.384766
vn -255.408783 50.013611 -283.781372
v 235421.109375 91.605003 -27411.968750
vn -7.278400 177.720703 -1008.357544
v 235451.703125 91.605003 -27411.968750
vn -3.605252 0.000000 -510.327087
v 235451.703125 86.896103 -27412.384766
vn -255.426025 197.066772 -541.503174
v 235421.109375 96.171898 -27410.750000
vn -3.602678 174.521851 -479.553925
v 235451.703125 96.171898 -27410.750000
vn -29.684128 217.489319 -597.499329
v 235475.296875 96.303001 -27411.109375
vn -14.643621 55.135254 -312.779358
v 235475.296875 91.671600 -27412.347656
vn -29.694908 0.000000 -635.849426
v 235475.296875 86.896103 -27412.767578
vn -255.436829 144.125244 -249.553375
v 235421.109375 100.454903 -27408.748047
vn -7.272524 512.068542 -886.733337
v 235451.703125 100.454903 -27408.748047
vn -255.397949 370.351685 -441.430725
v 235421.109375 104.328903 -27406.039063
vn -3.618469 327.982544 -390.929962
v 235451.703125 104.328903 -27406.039063
vn -29.698467 408.683594 -487.086731
v 235475.296875 104.575203 -27406.333984
vn -14.645408 158.781738 -275.050720
v 235475.296875 100.646400 -27409.080078
vn -255.413422 220.729126 -185.226730
v 235421.109375 107.669296 -27402.695313
vn -7.271586 784.351013 -658.162659
v 235451.703125 107.669296 -27402.695313
vn -255.422729 499.060547 -288.125854
v 235421.109375 110.383301 -27398.824219
vn -3.607576 441.966797 -255.163544
v 235451.703125 110.383301 -27398.824219
vn -29.679016 550.673096 -317.925781
v 235475.296875 110.715103 -27399.015625
vn -14.635745 243.335449 -204.151672
v 235475.296875 107.962799 -27402.941406
vn -255.436981 270.802490 -98.557663
v 235421.109375 112.378197 -27394.539063
vn -7.269706 962.191223 -350.203247
v 235451.703125 112.378197 -27394.539063
vn -255.434692 567.537964 -100.066437
v 235421.109375 113.604797 -27389.972656
vn -3.611438 502.610229 -88.618591
v 235451.703125 113.604797 -27389.972656
vn -29.687254 626.218994 -110.411278
v 235475.296875 113.982101 -27390.041016
vn -14.634418 298.405762 -108.627693
v 235475.296875 112.738297 -27394.669922
vn -255.391785 288.130981 0.000000
v 235421.109375 114.013603 -27385.263672
vn -7.268134 1023.851990 0.000001
v 235451.703125 114.013603 -27385.263672
vn -255.382523 567.418457 100.066437
v 235421.109375 113.604797 -27380.554688
vn -3.607507 502.504395 88.618591
v 235451.703125 113.604797 -27380.554688
vn -29.685574 626.172913 110.411278
v 235475.296875 113.982101 -27380.488281
vn -14.639505 317.628418 0.000000
v 235475.296875 114.396698 -27385.263672
vn -255.430695 270.802490 98.557663
v 235421.109375 112.378197 -27375.990234
vn -7.274306 962.237305 350.203247
v 235451.703125 112.378197 -27375.990234
vn -255.422729 499.060547 288.125854
v 235421.109375 110.383301 -27371.703125
vn -3.607576 441.966797 255.163544
v 235451.703125 110.383301 -27371.703125
vn -29.686050 550.608154 317.925720
v 235475.296875 110.715103 -27371.511719
vn -14.643614 298.470703 108.627693
v 235475.296875 112.738297 -27375.857422
vn -255.401611 220.729126 185.226730
v 235421.109375 107.669296 -27367.833984
vn -7.264629 784.304932 658.160400
v 235451.703125 107.669296 -27367.833984
vn -255.432007 370.471191 441.430725
v 235421.109375 104.328903 -27364.488281
vn -3.605460 328.088379 390.929962
v 235451.703125 104.328903 -27364.488281
vn -29.683855 408.775757 487.086700
v 235475.296875 104.575302 -27364.195313
vn -14.645347 243.270508 204.148376
v 235475.296875 107.962799 -27367.587891
vn -255.410339 144.065491 249.553375
v 235421.109375 100.454903 -27361.779297
vn -7.273743 511.949036 886.735657
v 235451.703125 100.454903 -27361.779297
vn -255.408722 197.066772 541.503235
v 235421.109375 96.171898 -27359.779297
vn -3.619963 174.521851 479.553955
v 235451.703125 96.171898 -27359.779297
vn -29.693176 217.443237 597.499390
v 235475.296875 96.303001 -27359.417969
vn -14.630879 158.846680 275.054016
v 235475.296875 100.646400 -27361.447266
vn -255.417969 50.073364 283.781372
v 235421.109375 91.605003 -27358.558594
vn -7.269203 177.886292 1008.357483
v 235451.703125 91.605003 -27358.558594
vn -255.421066 0.000000 576.251709
v 235421.109375 86.896103 -27358.142578
vn -3.605252 0.000000 510.327087
v 235451.703125 86.896103 -27358.142578
vn -29.676516 0.000000 635.849426
v 235475.296875 86.896103 -27357.759766
vn -14.643621 55.135254 312.779358
v 235475.296875 91.671600 -27358.181641
vn -255.418182 -50.073364 283.781586
v 235421.109375 82.187202 -27358.558594
vn -7.268887 -177.886292 1008.355774
v 235451.703125 82.187202 -27358.558594
vn -255.406219 -197.066772 541.497131
v 235421.109375 77.620300 -27359.779297
vn -3.619583 -174.521851 479.548523
v 235451.703125 77.620300 -27359.779297
vn -29.693501 -217.443237 597.501221
v 235475.296875 77.489304 -27359.417969
vn -14.643319 -55.135254 312.776093
v 235475.296875 82.120697 -27358.181641
vn -255.409698 -144.065491 249.553146
v 235421.109375 73.337402 -27361.779297
vn -7.273761 -511.949036 886.735107
v 235451.703125 73.337402 -27361.779297
vn -255.434235 -370.471191 441.437225
v 235421.109375 69.463303 -27364.488281
vn -3.604891 -328.088379 390.935730
v 235451.703125 69.463303 -27364.488281
vn -29.684177 -408.775757 487.089203
v 235475.296875 69.217003 -27364.195313
vn -14.631390 -158.846680 275.054016
v 235475.296875 73.145798 -27361.447266
vn -255.401733 -220.729126 185.226837
v 235421.109375 66.122902 -27367.833984
vn -7.264324 -784.304932 658.163025
v 235451.703125 66.122902 -27367.833984
vn -255.422760 -499.060547 288.125854
v 235421.109375 63.408901 -27371.703125
vn -3.607576 -441.966797 255.163544
v 235451.703125 63.408901 -27371.703125
vn -29.685997 -550.608154 317.922485
v 235475.296875 63.077099 -27371.511719
vn -14.645449 -243.270508 204.151825
v 235475.296875 65.829399 -27367.587891
vn -255.429871 -270.802490 98.554741
v 235421.109375 61.414001 -27375.990234
vn -7.273852 -962.237305 350.200500
v 235451.703125 61.414001 -27375.990234
vn -255.382568 -567.418457 100.066200
v 235421.109375 60.187500 -27380.554688
vn -3.608391 -502.504395 88.618378
v 235451.703125 60.187401 -27380.554688
vn -29.685642 -626.172913 110.414482
v 235475.296875 59.810101 -27380.488281
vn -14.643613 -298.470703 108.627693
v 235475.296875 61.054001 -27375.857422
vn -255.391800 -288.130981 0.003035
v 235421.109375 59.778599 -27385.263672
vn -7.268601 -1023.851990 0.003035
v 235451.703125 59.778599 -27385.263672
vn -255.434723 -567.537964 -100.066200
v 235421.109375 60.187401 -27389.972656
vn -3.611403 -502.610229 -88.618385
v 235451.703125 60.187401 -27389.972656
vn -29.687325 -626.218994 -110.414482
v 235475.296875 59.810101 -27390.041016
vn -14.639540 -317.628418 0.000000
v 235475.296875 59.395500 -27385.263672
vn -255.437103 -270.802490 -98.557777
v 235421.109375 61.414001 -27394.539063
vn -7.268799 -962.191223 -350.203552
v 235451.703125 61.414001 -27394.539063
vn -255.422760 -499.060547 -288.125854
v 235421.109375 63.408901 -27398.824219
vn -3.607576 -441.966797 -255.163544
v 235451.703125 63.408901 -27398.824219
vn -29.678963 -550.673096 -317.922455
v 235475.296875 63.077099 -27399.015625
vn -14.634418 -298.405762 -108.627693
v 235475.296875 61.054001 -27394.669922
vn -255.413544 -220.729126 -185.226837
v 235421.109375 66.122902 -27402.695313
vn -7.271588 -784.351013 -658.163025
v 235451.703125 66.122902 -27402.695313
vn -255.398117 -370.351685 -441.431152
v 235421.109375 69.463303 -27406.039063
vn -3.618472 -327.982544 -390.930359
v 235451.703125 69.463303 -27406.039063
vn -29.699173 -408.683594 -487.086884
v 235475.296875 69.217003 -27406.333984
vn -14.635750 -243.335449 -204.151825
v 235475.296875 65.829399 -27402.941406
vn -255.436646 -144.125244 -249.553146
v 235421.109375 73.337303 -27408.748047
vn -7.272555 -512.068542 -886.732544
v 235451.703125 73.337303 -27408.748047
vn -255.426041 -197.066772 -541.503174
v 235421.109375 77.620300 -27410.750000
vn -3.602678 -174.521851 -479.553894
v 235451.703125 77.620300 -27410.750000
vn -29.684288 -217.489319 -597.503601
v 235475.296875 77.489197 -27411.109375
vn -14.645434 -158.781738 -275.050476
v 235475.296875 73.145798 -27409.080078
vn -255.408997 -50.013611 -283.781586
v 235421.109375 82.187202 -27411.968750
vn -7.278254 -177.720703 -1008.358337
v 235451.703125 82.187202 -27411.968750
vn -14.643480 -55.135254 -312.779633
v 235475.296875 82.120697 -27412.347656
vn -4597.495605 0.000000 0.000000
v 235421.109375 86.896103 -27385.263672
vn 383.953613 0.000000 -143.974152
v 235500.062500 86.896103 -27418.515625
vn 383.947571 12.505280 -70.901657
v 235500.062500 92.669502 -27418.005859
vn 6911.041504 0.000000 0.000000
v 235500.062500 86.896103 -27385.263672
vn 383.947815 -12.505280 -70.901703
v 235500.062500 81.122704 -27418.005859
vn 383.945740 49.241821 -135.290863
v 235500.062500 98.268799 -27416.509766
vn 383.934906 35.993774 -62.349983
v 235500.062500 103.519897 -27414.056641
vn 383.948853 92.541504 -110.291153
v 235500.062500 108.269798 -27410.736328
vn 383.928589 55.147430 -46.277176
v 235500.062500 112.365303 -27406.634766
vn 383.958374 124.687500 -71.985840
v 235500.062500 115.692703 -27401.890625
vn 383.943481 67.652710 -24.624525
v 235500.062500 118.138603 -27396.634766
vn 383.942566 141.783325 -25.001045
v 235500.062500 119.642502 -27391.039063
vn 383.970764 71.999725 0.000000
v 235500.062500 120.143700 -27385.263672
vn 383.938660 141.783325 25.001045
v 235500.062500 119.642502 -27379.490234
vn 383.943481 67.652710 24.624525
v 235500.062500 118.138603 -27373.892578
vn 383.947113 124.687500 71.985840
v 235500.062500 115.692703 -27368.638672
vn 383.928589 55.147430 46.277176
v 235500.062500 112.365303 -27363.892578
vn 383.931580 92.541504 110.291153
v 235500.062500 108.269798 -27359.792969
vn 383.967377 36.005951 62.349983
v 235500.062500 103.519897 -27356.470703
vn 383.945740 49.241821 135.290863
v 235500.062500 98.268799 -27354.017578
vn 383.947571 12.505280 70.901657
v 235500.062500 92.669502 -27352.521484
vn 383.953613 0.000000 143.974152
v 235500.062500 86.896103 -27352.011719
vn 383.947815 -12.505280 70.901703
v 235500.062500 81.122704 -27352.521484
vn 383.946014 -49.241821 135.290955
v 235500.062500 75.523399 -27354.017578
vn 383.932098 -35.993774 62.349365
v 235500.062500 70.272301 -27356.470703
vn 383.948090 -92.541504 110.291107
v 235500.062500 65.522499 -27359.791016
vn 383.980408 -55.159607 46.277767
v 235500.062500 61.426899 -27363.892578
vn 383.947144 -124.687500 71.985840
v 235500.062500 58.099499 -27368.638672
vn 383.942383 -67.652710 24.623907
v 235500.062500 55.653599 -27373.892578
vn 383.937622 -141.783325 25.001095
v 235500.062500 54.149799 -27379.490234
vn 383.970856 -71.999725 0.000000
v 235500.062500 53.648499 -27385.263672
vn 383.941528 -141.783325 -25.001095
v 235500.062500 54.149799 -27391.039063
vn 383.941254 -67.652710 -24.623289
v 235500.062500 55.653599 -27396.634766
vn 383.959412 -124.687500 -71.985840
v 235500.062500 58.099400 -27401.890625
vn 383.930664 -55.147430 -46.277767
v 235500.062500 61.426899 -27406.634766
vn 383.948822 -92.541504 -110.291100
v 235500.062500 65.522400 -27410.736328
vn 383.934937 -35.993774 -62.349983
v 235500.062500 70.272301 -27414.056641
vn 383.946014 -49.241821 -135.290955
v 235500.062500 75.523399 -27416.509766
vn -53.720985 42.129578 -238.921707
v 235484.953125 91.871201 -27413.478516
vn -26.682602 0.000000 -122.510651
v 235484.953125 86.896103 -27413.917969
vn -26.678661 41.891357 -115.120636
v 235484.953125 96.696098 -27412.189453
vn -64.274040 18.562622 -50.999992
v 235487.609375 97.220398 -27413.628906
vn -32.143295 4.835205 -27.423908
v 235487.609375 92.137299 -27414.988281
vn -64.265808 0.000000 -54.273571
v 235487.609375 86.896103 -27415.449219
vn -53.722713 121.281616 -210.103455
v 235484.953125 101.221100 -27410.076172
vn -26.689407 78.756714 -93.848343
v 235484.953125 105.314102 -27407.214844
vn -64.260246 34.884033 -41.575912
v 235487.609375 106.299301 -27408.388672
vn -32.129288 13.919373 -24.115837
v 235487.609375 101.987396 -27411.402344
vn -53.746201 185.883728 -155.946213
v 235484.953125 108.843300 -27403.679688
vn -26.692293 106.099121 -61.254669
v 235484.953125 111.710701 -27399.589844
vn -64.270416 47.003174 -27.136503
v 235487.609375 113.038002 -27400.357422
vn -32.137352 21.333008 -17.899673
v 235487.609375 110.017303 -27404.666016
vn -53.731144 227.946350 -82.976730
v 235484.953125 113.818298 -27395.062500
vn -26.686710 120.648071 -21.273520
v 235484.953125 115.114197 -27390.240234
vn -64.267860 53.451843 -9.424629
v 235487.609375 116.623596 -27390.505859
vn -32.135178 26.168213 -9.524235
v 235487.609375 115.258400 -27395.587891
vn -53.736607 242.616516 0.000000
v 235484.953125 115.546097 -27385.263672
vn -26.690083 120.648071 21.273520
v 235484.953125 115.114197 -27380.289063
vn -64.265610 53.446655 9.424629
v 235487.609375 116.623596 -27380.021484
vn -32.135674 27.849121 0.000000
v 235487.609375 117.078697 -27385.263672
vn -53.727013 227.984070 82.976730
v 235484.953125 113.818298 -27375.464844
vn -26.682577 106.099121 61.254669
v 235484.953125 111.710701 -27370.937500
vn -64.262970 47.003174 27.136501
v 235487.609375 113.038002 -27370.171875
vn -32.129551 26.163025 9.524235
v 235487.609375 115.258400 -27374.941406
vn -53.733913 185.840820 155.945251
v 235484.953125 108.843300 -27366.847656
vn -26.685406 78.732666 93.848343
v 235484.953125 105.314102 -27363.314453
vn -64.254059 34.884033 41.575912
v 235487.609375 106.299301 -27362.140625
vn -32.124191 21.333008 17.899673
v 235487.609375 110.017303 -27365.863281
vn -53.728508 121.329712 210.104401
v 235484.953125 101.221100 -27360.453125
vn -26.680454 41.915405 115.120636
v 235484.953125 96.696098 -27358.337891
vn -64.243881 18.562622 50.999992
v 235487.609375 97.220398 -27356.898438
vn -32.132282 13.924561 24.115837
v 235487.609375 101.987396 -27359.125000
vn -53.719193 42.105530 238.921722
v 235484.953125 91.871201 -27357.048828
vn -26.682604 0.000000 122.510651
v 235484.953125 86.896103 -27356.611328
vn -64.266846 0.000000 54.273575
v 235487.609375 86.896103 -27355.078125
vn -32.123131 4.835205 27.423908
v 235487.609375 92.137299 -27355.541016
vn -53.719242 -42.105530 238.920868
v 235484.953125 81.921097 -27357.048828
vn -26.681068 -41.915405 115.121857
v 235484.953125 77.096100 -27358.337891
vn -64.243729 -18.562622 51.000519
v 235487.609375 76.571800 -27356.898438
vn -32.123154 -4.835205 27.423927
v 235487.609375 81.654999 -27355.541016
vn -53.729027 -121.329712 210.104294
v 235484.953125 72.571098 -27360.453125
vn -26.686089 -78.732666 93.848343
v 235484.953125 68.478104 -27363.314453
vn -64.253204 -34.884033 41.575626
v 235487.609375 67.492897 -27362.140625
vn -32.131760 -13.924561 24.115837
v 235487.609375 71.804802 -27359.125000
vn -53.733521 -185.840820 155.946274
v 235484.953125 64.948898 -27366.847656
vn -26.682575 -106.099121 61.254669
v 235484.953125 62.081501 -27370.937500
vn -64.262787 -47.003174 27.136786
v 235487.609375 60.754200 -27370.171875
vn -32.123352 -21.333008 17.899664
v 235487.609375 63.775002 -27365.863281
vn -53.727951 -227.984070 82.976791
v 235484.953125 59.973900 -27375.464844
vn -26.690157 -120.648071 21.273520
v 235484.953125 58.678001 -27380.289063
vn -64.265549 -53.446655 9.424366
v 235487.609375 57.168598 -27380.021484
vn -32.129520 -26.163025 9.524255
v 235487.609375 58.533798 -27374.941406
vn -53.735641 -242.616516 -0.000000
v 235484.953125 58.246101 -27385.263672
vn -26.686783 -120.648071 -21.273520
v 235484.953125 58.678001 -27390.240234
vn -64.267799 -53.451843 -9.424366
v 235487.609375 57.168598 -27390.505859
vn -32.135677 -27.849121 0.000000
v 235487.609375 56.713600 -27385.263672
vn -53.732082 -227.946350 -82.976791
v 235484.953125 59.973900 -27395.062500
vn -26.692291 -106.099121 -61.254669
v 235484.953125 62.081501 -27399.589844
vn -64.265457 -46.997986 -27.136513
v 235487.609375 60.754200 -27400.357422
vn -32.135147 -26.168213 -9.524255
v 235487.609375 58.533798 -27395.587891
vn -53.732826 -185.883728 -155.944962
v 235484.953125 64.948898 -27403.679688
vn -26.689455 -78.756714 -93.848343
v 235484.953125 68.477997 -27407.214844
vn -64.264206 -34.889221 -41.575897
v 235487.609375 67.492897 -27408.388672
vn -32.136520 -21.333008 -17.899664
v 235487.609375 63.774899 -27404.664063
vn -53.722931 -121.281616 -210.104599
v 235484.953125 72.571098 -27410.076172
vn -26.678913 -41.891357 -115.121857
v 235484.953125 77.096100 -27412.189453
vn -64.274254 -18.562622 -51.000519
v 235487.609375 76.571800 -27413.628906
vn -32.128769 -13.919373 -24.115837
v 235487.609375 71.804802 -27411.402344
vn -53.721016 -42.129578 -238.921890
v 235484.953125 81.921097 -27413.478516
vn -32.143318 -4.835205 -27.423927
v 235487.609375 81.654999 -27414.988281
vn -67.524994 0.000000 0.000000
v 235487.609375 92.403397 -27416.498047
vn -33.774921 0.000000 0.000000
v 235487.609375 86.896103 -27416.982422
vn -33.767700 0.000000 0.000000
v 235487.609375 97.744598 -27415.070313
vn -34.557991 49.118408 -134.951797
v 235487.609375 98.268799 -27416.509766
vn -17.681664 12.473938 -70.723953
v 235487.609375 92.669502 -27418.005859
vn -34.569218 0.000000 -143.613312
v 235487.609375 86.896103 -27418.515625
vn -67.523010 0.000000 0.000000
v 235487.609375 102.753700 -27412.730469
vn -33.759857 0.000000 0.000000
v 235487.609375 107.284500 -27409.562500
vn -34.570236 92.309570 -110.014732
v 235487.609375 108.269798 -27410.736328
vn -17.686634 35.903564 -62.193718
v 235487.609375 103.519897 -27414.056641
vn -67.519791 0.000000 0.000000
v 235487.609375 111.191299 -27405.650391
vn -33.767021 0.000000 0.000000
v 235487.609375 114.365402 -27401.123047
vn -34.582710 124.375000 -71.805420
v 235487.609375 115.692703 -27401.890625
vn -17.691811 55.009216 -46.161190
v 235487.609375 112.365303 -27406.634766
vn -67.526001 0.000000 0.000000
v 235487.609375 116.698502 -27396.111328
vn -33.767906 0.000000 0.000000
v 235487.609375 118.133003 -27390.771484
vn -34.582687 141.427979 -24.938385
v 235487.609375 119.642502 -27391.039063
vn -17.694824 67.483154 -24.562809
v 235487.609375 118.138603 -27396.634766
vn -67.530060 0.000000 0.000000
v 235487.609375 118.611198 -27385.263672
vn -33.764168 0.000000 0.000000
v 235487.609375 118.133003 -27379.755859
vn -34.578773 141.427979 24.938387
v 235487.609375 119.642502 -27379.490234
vn -17.698593 71.819275 0.000000
v 235487.609375 120.143700 -27385.263672
vn -67.527397 0.000000 0.000000
v 235487.609375 116.698502 -27374.416016
vn -33.761837 0.000000 0.000000
v 235487.609375 114.365402 -27369.404297
vn -34.575340 124.375000 71.805420
v 235487.609375 115.692703 -27368.638672
vn -17.694824 67.483154 24.562809
v 235487.609375 118.138603 -27373.892578
vn -67.529091 0.000000 0.000000
v 235487.609375 111.191299 -27364.878906
vn -33.759857 0.000000 0.000000
v 235487.609375 107.284500 -27360.966797
vn -34.586720 92.309570 110.014732
v 235487.609375 108.269798 -27359.792969
vn -17.706306 55.009216 46.161190
v 235487.609375 112.365303 -27363.892578
vn -67.527802 0.000000 0.000000
v 235487.609375 102.753700 -27357.798828
vn -33.767700 0.000000 0.000000
v 235487.609375 97.744598 -27355.458984
vn -34.599396 49.118408 134.951782
v 235487.609375 98.268799 -27354.017578
vn -17.707664 35.915710 62.193718
v 235487.609375 103.519897 -27356.470703
vn -67.547211 0.000000 0.000000
v 235487.609375 92.403397 -27354.031250
vn -33.774921 0.000000 0.000000
v 235487.609375 86.896103 -27353.544922
vn -34.591766 0.000000 143.613312
v 235487.609375 86.896103 -27352.011719
vn -17.703876 12.473938 70.723953
v 235487.609375 92.669502 -27352.521484
vn -67.547142 0.000000 0.000000
v 235487.609375 81.388901 -27354.031250
vn -33.767704 0.000000 0.000000
v 235487.609375 76.047699 -27355.458984
vn -34.600163 -49.118408 134.951889
v 235487.609375 75.523399 -27354.017578
vn -17.704071 -12.473938 70.723999
v 235487.609375 81.122704 -27352.521484
vn -67.535004 0.000000 0.000000
v 235487.609375 71.038597 -27357.798828
vn -33.775627 0.000000 0.000000
v 235487.609375 66.507698 -27360.966797
vn -34.603985 -92.309570 110.014679
v 235487.609375 65.522499 -27359.791016
vn -17.706608 -35.903564 62.193100
v 235487.609375 70.272301 -27356.470703
vn -67.539543 0.000000 0.000000
v 235487.609375 62.601002 -27364.878906
vn -33.761990 0.000000 0.000000
v 235487.609375 59.426800 -27369.404297
vn -34.575890 -124.375000 71.805420
v 235487.609375 58.099499 -27368.638672
vn -17.709572 -55.021362 46.161781
v 235487.609375 61.426899 -27363.892578
vn -67.526741 0.000000 0.000000
v 235487.609375 57.093700 -27374.416016
vn -33.763012 0.000000 0.000000
v 235487.609375 55.659199 -27379.755859
vn -34.577648 -141.427979 24.938435
v 235487.609375 54.149799 -27379.490234
vn -17.694775 -67.483154 24.562195
v 235487.609375 55.653599 -27373.892578
vn -67.529922 0.000000 0.000000
v 235487.609375 55.181000 -27385.263672
vn -33.766750 0.000000 0.000000
v 235487.609375 55.659199 -27390.771484
vn -34.581558 -141.427979 -24.938435
v 235487.609375 54.149799 -27391.039063
vn -17.698593 -71.819275 0.000000
v 235487.609375 53.648499 -27385.263672
vn -67.525803 0.000000 0.000000
v 235487.609375 57.093700 -27396.111328
vn -33.768120 0.000000 0.000000
v 235487.609375 59.426800 -27401.123047
vn -34.584248 -124.375000 -71.805420
v 235487.609375 58.099400 -27401.890625
vn -17.694721 -67.483154 -24.561577
v 235487.609375 55.653599 -27396.634766
vn -67.533249 0.000000 0.000000
v 235487.609375 62.601002 -27405.650391
vn -33.759846 0.000000 0.000000
v 235487.609375 66.507599 -27409.562500
vn -34.570267 -92.309570 -110.014687
v 235487.609375 65.522400 -27410.736328
vn -17.692780 -55.009216 -46.161781
v 235487.609375 61.426899 -27406.634766
vn -67.523247 0.000000 0.000000
v 235487.609375 71.038597 -27412.730469
vn -33.767700 0.000000 0.000000
v 235487.609375 76.047600 -27415.070313
vn -34.558380 -49.118408 -134.951874
v 235487.609375 75.523399 -27416.509766
vn -17.687208 -35.903564 -62.193718
v 235487.609375 70.272301 -27414.056641
vn -67.525215 0.000000 0.000000
v 235487.609375 81.388901 -27416.498047
vn -17.681858 -12.473938 -70.723999
v 235487.609375 81.122704 -27418.005859
vn 0.000000 49.958435 -283.251190
v 235493.828125 92.669502 -27418.005859
vn 0.000000 0.000000 -143.793732
v 235493.828125 86.896103 -27418.515625
vn 0.000000 49.180115 -135.121338
v 235493.828125 98.268799 -27416.509766
vn 0.000000 143.794678 -249.087402
v 235493.828125 103.519897 -27414.056641
vn 0.000000 92.425537 -110.152939
v 235493.828125 108.269798 -27410.736328
vn 0.000000 220.313293 -184.876724
v 235493.828125 112.365303 -27406.634766
vn 0.000000 124.531250 -71.895630
v 235493.828125 115.692703 -27401.890625
vn 0.000000 270.271729 -98.374672
v 235493.828125 118.138603 -27396.634766
vn 0.000000 141.605652 -24.969715
v 235493.828125 119.642502 -27391.039063
vn 0.000000 287.638000 0.000000
v 235493.828125 120.143700 -27385.263672
vn 0.000000 141.605652 24.969715
v 235493.828125 119.642502 -27379.490234
vn 0.000000 270.271729 98.374680
v 235493.828125 118.138603 -27373.892578
vn 0.000000 124.531250 71.895630
v 235493.828125 115.692703 -27368.638672
vn 0.000000 220.313293 184.876740
v 235493.828125 112.365303 -27363.892578
vn 0.000000 92.425537 110.152939
v 235493.828125 108.269798 -27359.792969
vn 0.000000 143.843323 249.087402
v 235493.828125 103.519897 -27356.470703
vn 0.000000 49.180115 135.121338
v 235493.828125 98.268799 -27354.017578
vn 0.000000 49.958435 283.251190
v 235493.828125 92.669502 -27352.521484
vn 0.000000 0.000000 143.793732
v 235493.828125 86.896103 -27352.011719
vn 0.000000 -49.958435 283.251373
v 235493.828125 81.122704 -27352.521484
vn 0.000000 -49.180115 135.121429
v 235493.828125 75.523399 -27354.017578
vn 0.000000 -143.794678 249.084915
v 235493.828125 70.272301 -27356.470703
vn 0.000000 -92.425537 110.152893
v 235493.828125 65.522499 -27359.791016
vn 0.000000 -220.361938 184.879105
v 235493.828125 61.426899 -27363.892578
vn 0.000000 -124.531250 71.895630
v 235493.828125 58.099499 -27368.638672
vn 0.000000 -270.271729 98.372208
v 235493.828125 55.653599 -27373.892578
vn 0.000000 -141.605652 24.969765
v 235493.828125 54.149799 -27379.490234
vn 0.000000 -287.638000 0.000000
v 235493.828125 53.648499 -27385.263672
vn 0.000000 -141.605652 -24.969765
v 235493.828125 54.149799 -27391.039063
vn 0.000000 -270.271729 -98.369736
v 235493.828125 55.653599 -27396.634766
vn 0.000000 -124.531250 -71.895630
v 235493.828125 58.099400 -27401.890625
vn 0.000000 -220.313293 -184.879089
v 235493.828125 61.426899 -27406.634766
vn 0.000000 -92.425537 -110.152893
v 235493.828125 65.522400 -27410.736328
vn 0.000000 -143.794678 -249.087402
v 235493.828125 70.272301 -27414.056641
vn 0.000000 -49.180115 -135.121429
v 235493.828125 75.523399 -27416.509766
vn 0.000000 -49.958435 -283.251373
v 235493.828125 81.122704 -27418.005859
vn 13028.493164 -15460.951172 6369.015137
v 235447.718750 -5.116100 -27546.171875
vn -6514.246582 -7730.475586 12738.030273
v 235360.781250 -5.116100 -27546.171875
vn -13028.493164 -15460.951172 -6369.015137
v 235360.781250 -5.116100 -27635.091797
vn 6514.246582 -7730.475586 -12738.030273
v 235447.718750 -5.116100 -27635.091797
vn 6514.246582 15460.951172 12738.030273
v 235447.718750 68.143600 -27546.171875
vn 13028.493164 7730.475586 -6369.015137
v 235447.718750 68.143600 -27635.091797
vn -6514.246582 15460.951172 -12738.030273
v 235360.781250 68.143600 -27635.091797
vn -13028.493164 7730.475586 6369.015137
v 235360.781250 68.143600 -27546.171875
vn 13028.493164 -15460.951172 6369.015137
v 235452.687500 -5.116100 -27367.171875
vn -6514.246582 -7730.475586 12738.030273
v 235365.750000 -5.116100 -27367.171875
vn -13028.493164 -15460.951172 -6369.015137
v 235365.750000 -5.116100 -27456.091797
vn 6514.246582 -7730.475586 -12738.030273
v 235452.687500 -5.116100 -27456.091797
vn 6514.246582 15460.951172 12738.030273
v 235452.687500 68.143600 -27367.171875
vn 13028.493164 7730.475586 -6369.015137
v 235452.687500 68.143600 -27456.091797
vn -6514.246582 15460.951172 -12738.030273
v 235365.750000 68.143600 -27456.091797
vn -13028.493164 7730.475586 6369.015137
v 235365.750000 68.143600 -27367.171875
# 342 vertices, 0 vertices normals

f 1//1 2//2 3//3
f 1//1 3//3 4//4
f 5//5 6//6 3//3
f 5//5 3//3 2//2
f 7//7 8//8 3//3
f 7//7 3//3 6//6
f 9//9 4//4 3//3
f 9//9 3//3 8//8
f 5//5 10//10 11//11
f 5//5 11//11 6//6
f 12//12 13//13 11//11
f 12//12 11//11 10//10
f 14//14 15//15 11//11
f 14//14 11//11 13//13
f 7//7 6//6 11//11
f 7//7 11//11 15//15
f 12//12 16//16 17//17
f 12//12 17//17 13//13
f 18//18 19//19 17//17
f 18//18 17//17 16//16
f 20//20 21//21 17//17
f 20//20 17//17 19//19
f 14//14 13//13 17//17
f 14//14 17//17 21//21
f 18//18 22//22 23//23
f 18//18 23//23 19//19
f 24//24 25//25 23//23
f 24//24 23//23 22//22
f 26//26 27//27 23//23
f 26//26 23//23 25//25
f 20//20 19//19 23//23
f 20//20 23//23 27//27
f 24//24 28//28 29//29
f 24//24 29//29 25//25
f 30//30 31//31 29//29
f 30//30 29//29 28//28
f 32//32 33//33 29//29
f 32//32 29//29 31//31
f 26//26 25//25 29//29
f 26//26 29//29 33//33
f 30//30 34//34 35//35
f 30//30 35//35 31//31
f 36//36 37//37 35//35
f 36//36 35//35 34//34
f 38//38 39//39 35//35
f 38//38 35//35 37//37
f 32//32 31//31 35//35
f 32//32 35//35 39//39
f 36//36 40//40 41//41
f 36//36 41//41 37//37
f 42//42 43//43 41//41
f 42//42 41//41 40//40
f 44//44 45//45 41//41
f 44//44 41//41 43//43
f 38//38 37//37 41//41
f 38//38 41//41 45//45
f 42//42 46//46 47//47
f 42//42 47//47 43//43
f 48//48 49//49 47//47
f 48//48 47//47 46//46
f 50//50 51//51 47//47
f 50//50 47//47 49//49
f 44//44 43//43 47//47
f 44//44 47//47 51//51
f 48//48 52//52 53//53
f 48//48 53//53 49//49
f 54//54 55//55 53//53
f 54//54 53//53 52//52
f 56//56 57//57 53//53
f 56//56 53//53 55//55
f 50//50 49//49 53//53
f 50//50 53//53 57//57
f 54//54 58//58 59//59
f 54//54 59//59 55//55
f 60//60 61//61 59//59
f 60//60 59//59 58//58
f 62//62 63//63 59//59
f 62//62 59//59 61//61
f 56//56 55//55 59//59
f 56//56 59//59 63//63
f 60//60 64//64 65//65
f 60//60 65//65 61//61
f 66//66 67//67 65//65
f 66//66 65//65 64//64
f 68//68 69//69 65//65
f 68//68 65//65 67//67
f 62//62 61//61 65//65
f 62//62 65//65 69//69
f 66//66 70//70 71//71
f 66//66 71//71 67//67
f 72//72 73//73 71//71
f 72//72 71//71 70//70
f 74//74 75//75 71//71
f 74//74 71//71 73//73
f 68//68 67//67 71//71
f 68//68 71//71 75//75
f 72//72 76//76 77//77
f 72//72 77//77 73//73
f 78//78 79//79 77//77
f 78//78 77//77 76//76
f 80//80 81//81 77//77
f 80//80 77//77 79//79
f 74//74 73//73 77//77
f 74//74 77//77 81//81
f 78//78 82//82 83//83
f 78//78 83//83 79//79
f 84//84 85//85 83//83
f 84//84 83//83 82//82
f 86//86 87//87 83//83
f 86//86 83//83 85//85
f 80//80 79//79 83//83
f 80//80 83//83 87//87
f 84//84 88//88 89//89
f 84//84 89//89 85//85
f 90//90 91//91 89//89
f 90//90 89//89 88//88
f 92//92 93//93 89//89
f 92//92 89//89 91//91
f 86//86 85//85 89//89
f 86//86 89//89 93//93
f 90//90 94//94 95//95
f 90//90 95//95 91//91
f 96//96 97//97 95//95
f 96//96 95//95 94//94
f 98//98 99//99 95//95
f 98//98 95//95 97//97
f 92//92 91//91 95//95
f 92//92 95//95 99//99
f 96//96 100//100 101//101
f 96//96 101//101 97//97
f 102//102 103//103 101//101
f 102//102 101//101 100//100
f 104//104 105//105 101//101
f 104//104 101//101 103//103
f 98//98 97//97 101//101
f 98//98 101//101 105//105
f 102//102 106//106 107//107
f 102//102 107//107 103//103
f 1//1 4//4 107//107
f 1//1 107//107 106//106
f 9//9 108//108 107//107
f 9//9 107//107 4//4
f 104//104 103//103 107//107
f 104//104 107//107 108//108
f 102//102 100//100 109//109
f 102//102 109//109 106//106
f 96//96 94//94 109//109
f 96//96 109//109 100//100
f 90//90 88//88 109//109
f 90//90 109//109 94//94
f 84//84 82//82 109//109
f 84//84 109//109 88//88
f 78//78 76//76 109//109
f 78//78 109//109 82//82
f 72//72 70//70 109//109
f 72//72 109//109 76//76
f 66//66 64//64 109//109
f 66//66 109//109 70//70
f 60//60 58//58 109//109
f 60//60 109//109 64//64
f 54//54 52//52 109//109
f 54//54 109//109 58//58
f 48//48 46//46 109//109
f 48//48 109//109 52//52
f 42//42 40//40 109//109
f 42//42 109//109 46//46
f 36//36 34//34 109//109
f 36//36 109//109 40//40
f 30//30 28//28 109//109
f 30//30 109//109 34//34
f 24//24 22//22 109//109
f 24//24 109//109 28//28
f 18//18 16//16 109//109
f 18//18 109//109 22//22
f 12//12 10//10 109//109
f 12//12 109//109 16//16
f 5//5 2//2 109//109
f 5//5 109//109 10//10
f 1//1 106//106 109//109
f 1//1 109//109 2//2
f 110//110 111//111 112//112
f 110//110 112//112 113//113
f 114//114 115//115 112//112
f 114//114 112//112 111//111
f 116//116 117//117 112//112
f 116//116 112//112 115//115
f 118//118 119//119 112//112
f 118//118 112//112 117//117
f 120//120 121//121 112//112
f 120//120 112//112 119//119
f 122//122 123//123 112//112
f 122//122 112//112 121//121
f 124//124 125//125 112//112
f 124//124 112//112 123//123
f 126//126 127//127 112//112
f 126//126 112//112 125//125
f 128//128 129//129 112//112
f 128//128 112//112 127//127
f 130//130 131//131 112//112
f 130//130 112//112 129//129
f 132//132 133//133 112//112
f 132//132 112//112 131//131
f 134//134 135//135 112//112
f 134//134 112//112 133//133
f 136//136 137//137 112//112
f 136//136 112//112 135//135
f 138//138 139//139 112//112
f 138//138 112//112 137//137
f 140//140 141//141 112//112
f 140//140 112//112 139//139
f 142//142 143//143 112//112
f 142//142 112//112 141//141
f 144//144 145//145 112//112
f 144//144 112//112 143//143
f 146//146 113//113 112//112
f 146//146 112//112 145//145
f 9//9 8//8 147//147
f 9//9 147//147 148//148
f 7//7 149//149 147//147
f 7//7 147//147 8//8
f 150//150 151//151 147//147
f 150//150 147//147 149//149
f 152//152 148//148 147//147
f 152//152 147//147 151//151
f 7//7 15//15 153//153
f 7//7 153//153 149//149
f 14//14 154//154 153//153
f 14//14 153//153 15//15
f 155//155 156//156 153//153
f 155//155 153//153 154//154
f 150//150 149//149 153//153
f 150//150 153//153 156//156
f 14//14 21//21 157//157
f 14//14 157//157 154//154
f 20//20 158//158 157//157
f 20//20 157//157 21//21
f 159//159 160//160 157//157
f 159//159 157//157 158//158
f 155//155 154//154 157//157
f 155//155 157//157 160//160
f 20//20 27//27 161//161
f 20//20 161//161 158//158
f 26//26 162//162 161//161
f 26//26 161//161 27//27
f 163//163 164//164 161//161
f 163//163 161//161 162//162
f 159//159 158//158 161//161
f 159//159 161//161 164//164
f 26//26 33//33 165//165
f 26//26 165//165 162//162
f 32//32 166//166 165//165
f 32//32 165//165 33//33
f 167//167 168//168 165//165
f 167//167 165//165 166//166
f 163//163 162//162 165//165
f 163//163 165//165 168//168
f 32//32 39//39 169//169
f 32//32 169//169 166//166
f 38//38 170//170 169//169
f 38//38 169//169 39//39
f 171//171 172//172 169//169
f 171//171 169//169 170//170
f 167//167 166//166 169//169
f 167//167 169//169 172//172
f 38//38 45//45 173//173
f 38//38 173//173 170//170
f 44//44 174//174 173//173
f 44//44 173//173 45//45
f 175//175 176//176 173//173
f 175//175 173//173 174//174
f 171//171 170//170 173//173
f 171//171 173//173 176//176
f 44//44 51//51 177//177
f 44//44 177//177 174//174
f 50//50 178//178 177//177
f 50//50 177//177 51//51
f 179//179 180//180 177//177
f 179//179 177//177 178//178
f 175//175 174//174 177//177
f 175//175 177//177 180//180
f 50//50 57//57 181//181
f 50//50 181//181 178//178
f 56//56 182//182 181//181
f 56//56 181//181 57//57
f 183//183 184//184 181//181
f 183//183 181//181 182//182
f 179//179 178//178 181//181
f 179//179 181//181 184//184
f 56//56 63//63 185//185
f 56//56 185//185 182//182
f 62//62 186//186 185//185
f 62//62 185//185 63//63
f 187//187 188//188 185//185
f 187//187 185//185 186//186
f 183//183 182//182 185//185
f 183//183 185//185 188//188
f 62//62 69//69 189//189
f 62//62 189//189 186//186
f 68//68 190//190 189//189
f 68//68 189//189 69//69
f 191//191 192//192 189//189
f 191//191 189//189 190//190
f 187//187 186//186 189//189
f 187//187 189//189 192//192
f 68//68 75//75 193//193
f 68//68 193//193 190//190
f 74//74 194//194 193//193
f 74//74 193//193 75//75
f 195//195 196//196 193//193
f 195//195 193//193 194//194
f 191//191 190//190 193//193
f 191//191 193//193 196//196
f 74//74 81//81 197//197
f 74//74 197//197 194//194
f 80//80 198//198 197//197
f 80//80 197//197 81//81
f 199//199 200//200 197//197
f 199//199 197//197 198//198
f 195//195 194//194 197//197
f 195//195 197//197 200//200
f 80//80 87//87 201//201
f 80//80 201//201 198//198
f 86//86 202//202 201//201
f 86//86 201//201 87//87
f 203//203 204//204 201//201
f 203//203 201//201 202//202
f 199//199 198//198 201//201
f 199//199 201//201 204//204
f 86//86 93//93 205//205
f 86//86 205//205 202//202
f 92//92 206//206 205//205
f 92//92 205//205 93//93
f 207//207 208//208 205//205
f 207//207 205//205 206//206
f 203//203 202//202 205//205
f 203//203 205//205 208//208
f 92//92 99//99 209//209
f 92//92 209//209 206//206
f 98//98 210//210 209//209
f 98//98 209//209 99//99
f 211//211 212//212 209//209
f 211//211 209//209 210//210
f 207//207 206//206 209//209
f 207//207 209//209 212//212
f 98//98 105//105 213//213
f 98//98 213//213 210//210
f 104//104 214//214 213//213
f 104//104 213//213 105//105
f 215//215 216//216 213//213
f 215//215 213//213 214//214
f 211//211 210//210 213//213
f 211//211 213//213 216//216
f 104//104 108//108 217//217
f 104//104 217//217 214//214
f 9//9 148//148 217//217
f 9//9 217//217 108//108
f 152//152 218//218 217//217
f 152//152 217//217 148//148
f 215//215 214//214 217//217
f 215//215 217//217 218//218
f 152//152 151//151 219//219
f 152//152 219//219 220//220
f 150//150 221//221 219//219
f 150//150 219//219 151//151
f 222//222 223//223 219//219
f 222//222 219//219 221//221
f 224//224 220//220 219//219
f 224//224 219//219 223//223
f 150//150 156//156 225//225
f 150//150 225//225 221//221
f 155//155 226//226 225//225
f 155//155 225//225 156//156
f 227//227 228//228 225//225
f 227//227 225//225 226//226
f 222//222 221//221 225//225
f 222//222 225//225 228//228
f 155//155 160//160 229//229
f 155//155 229//229 226//226
f 159//159 230//230 229//229
f 159//159 229//229 160//160
f 231//231 232//232 229//229
f 231//231 229//229 230//230
f 227//227 226//226 229//229
f 227//227 229//229 232//232
f 159//159 164//164 233//233
f 159//159 233//233 230//230
f 163//163 234//234 233//233
f 163//163 233//233 164//164
f 235//235 236//236 233//233
f 235//235 233//233 234//234
f 231//231 230//230 233//233
f 231//231 233//233 236//236
f 163//163 168//168 237//237
f 163//163 237//237 234//234
f 167//167 238//238 237//237
f 167//167 237//237 168//168
f 239//239 240//240 237//237
f 239//239 237//237 238//238
f 235//235 234//234 237//237
f 235//235 237//237 240//240
f 167//167 172//172 241//241
f 167//167 241//241 238//238
f 171//171 242//242 241//241
f 171//171 241//241 172//172
f 243//243 244//244 241//241
f 243//243 241//241 242//242
f 239//239 238//238 241//241
f 239//239 241//241 244//244
f 171//171 176//176 245//245
f 171//171 245//245 242//242
f 175//175 246//246 245//245
f 175//175 245//245 176//176
f 247//247 248//248 245//245
f 247//247 245//245 246//246
f 243//243 242//242 245//245
f 243//243 245//245 248//248
f 175//175 180//180 249//249
f 175//175 249//249 246//246
f 179//179 250//250 249//249
f 179//179 249//249 180//180
f 251//251 252//252 249//249
f 251//251 249//249 250//250
f 247//247 246//246 249//249
f 247//247 249//249 252//252
f 179//179 184//184 253//253
f 179//179 253//253 250//250
f 183//183 254//254 253//253
f 183//183 253//253 184//184
f 255//255 256//256 253//253
f 255//255 253//253 254//254
f 251//251 250//250 253//253
f 251//251 253//253 256//256
f 183//183 188//188 257//257
f 183//183 257//257 254//254
f 187//187 258//258 257//257
f 187//187 257//257 188//188
f 259//259 260//260 257//257
f 259//259 257//257 258//258
f 255//255 254//254 257//257
f 255//255 257//257 260//260
f 187//187 192//192 261//261
f 187//187 261//261 258//258
f 191//191 262//262 261//261
f 191//191 261//261 192//192
f 263//263 264//264 261//261
f 263//263 261//261 262//262
f 259//259 258//258 261//261
f 259//259 261//261 264//264
f 191//191 196//196 265//265
f 191//191 265//265 262//262
f 195//195 266//266 265//265
f 195//195 265//265 196//196
f 267//267 268//268 265//265
f 267//267 265//265 266//266
f 263//263 262//262 265//265
f 263//263 265//265 268//268
f 195//195 200//200 269//269
f 195//195 269//269 266//266
f 199//199 270//270 269//269
f 199//199 269//269 200//200
f 271//271 272//272 269//269
f 271//271 269//269 270//270
f 267//267 266//266 269//269
f 267//267 269//269 272//272
f 199//199 204//204 273//273
f 199//199 273//273 270//270
f 203//203 274//274 273//273
f 203//203 273//273 204//204
f 275//275 276//276 273//273
f 275//275 273//273 274//274
f 271//271 270//270 273//273
f 271//271 273//273 276//276
f 203//203 208//208 277//277
f 203//203 277//277 274//274
f 207//207 278//278 277//277
f 207//207 277//277 208//208
f 279//279 280//280 277//277
f 279//279 277//277 278//278
f 275//275 274//274 277//277
f 275//275 277//277 280//280
f 207//207 212//212 281//281
f 207//207 281//281 278//278
f 211//211 282//282 281//281
f 211//211 281//281 212//212
f 283//283 284//284 281//281
f 283//283 281//281 282//282
f 279//279 278//278 281//281
f 279//279 281//281 284//284
f 211//211 216//216 285//285
f 211//211 285//285 282//282
f 215//215 286//286 285//285
f 215//215 285//285 216//216
f 287//287 288//288 285//285
f 287//287 285//285 286//286
f 283//283 282//282 285//285
f 283//283 285//285 288//288
f 215//215 218//218 289//289
f 215//215 289//289 286//286
f 152//152 220//220 289//289
f 152//152 289//289 218//218
f 224//224 290//290 289//289
f 224//224 289//289 220//220
f 287//287 286//286 289//289
f 287//287 289//289 290//290
f 224//224 223//223 291//291
f 224//224 291//291 292//292
f 222//222 293//293 291//291
f 222//222 291//291 223//223
f 114//114 111//111 291//291
f 114//114 291//291 293//293
f 110//110 292//292 291//291
f 110//110 291//291 111//111
f 222//222 228//228 294//294
f 222//222 294//294 293//293
f 227//227 295//295 294//294
f 227//227 294//294 228//228
f 116//116 115//115 294//294
f 116//116 294//294 295//295
f 114//114 293//293 294//294
f 114//114 294//294 115//115
f 227//227 232//232 296//296
f 227//227 296//296 295//295
f 231//231 297//297 296//296
f 231//231 296//296 232//232
f 118//118 117//117 296//296
f 118//118 296//296 297//297
f 116//116 295//295 296//296
f 116//116 296//296 117//117
f 231//231 236//236 298//298
f 231//231 298//298 297//297
f 235//235 299//299 298//298
f 235//235 298//298 236//236
f 120//120 119//119 298//298
f 120//120 298//298 299//299
f 118//118 297//297 298//298
f 118//118 298//298 119//119
f 235//235 240//240 300//300
f 235//235 300//300 299//299
f 239//239 301//301 300//300
f 239//239 300//300 240//240
f 122//122 121//121 300//300
f 122//122 300//300 301//301
f 120//120 299//299 300//300
f 120//120 300//300 121//121
f 239//239 244//244 302//302
f 239//239 302//302 301//301
f 243//243 303//303 302//302
f 243//243 302//302 244//244
f 124//124 123//123 302//302
f 124//124 302//302 303//303
f 122//122 301//301 302//302
f 122//122 302//302 123//123
f 243//243 248//248 304//304
f 243//243 304//304 303//303
f 247//247 305//305 304//304
f 247//247 304//304 248//248
f 126//126 125//125 304//304
f 126//126 304//304 305//305
f 124//124 303//303 304//304
f 124//124 304//304 125//125
f 247//247 252//252 306//306
f 247//247 306//306 305//305
f 251//251 307//307 306//306
f 251//251 306//306 252//252
f 128//128 127//127 306//306
f 128//128 306//306 307//307
f 126//126 305//305 306//306
f 126//126 306//306 127//127
f 251//251 256//256 308//308
f 251//251 308//308 307//307
f 255//255 309//309 308//308
f 255//255 308//308 256//256
f 130//130 129//129 308//308
f 130//130 308//308 309//309
f 128//128 307//307 308//308
f 128//128 308//308 129//129
f 255//255 260//260 310//310
f 255//255 310//310 309//309
f 259//259 311//311 310//310
f 259//259 310//310 260//260
f 132//132 131//131 310//310
f 132//132 310//310 311//311
f 130//130 309//309 310//310
f 130//130 310//310 131//131
f 259//259 264//264 312//312
f 259//259 312//312 311//311
f 263//263 313//313 312//312
f 263//263 312//312 264//264
f 134//134 133//133 312//312
f 134//134 312//312 313//313
f 132//132 311//311 312//312
f 132//132 312//312 133//133
f 263//263 268//268 314//314
f 263//263 314//314 313//313
f 267//267 315//315 314//314
f 267//267 314//314 268//268
f 136//136 135//135 314//314
f 136//136 314//314 315//315
f 134//134 313//313 314//314
f 134//134 314//314 135//135
f 267//267 272//272 316//316
f 267//267 316//316 315//315
f 271//271 317//317 316//316
f 271//271 316//316 272//272
f 138//138 137//137 316//316
f 138//138 316//316 317//317
f 136//136 315//315 316//316
f 136//136 316//316 137//137
f 271//271 276//276 318//318
f 271//271 318//318 317//317
f 275//275 319//319 318//318
f 275//275 318//318 276//276
f 140//140 139//139 318//318
f 140//140 318//318 319//319
f 138//138 317//317 318//318
f 138//138 318//318 139//139
f 275//275 280//280 320//320
f 275//275 320//320 319//319
f 279//279 321//321 320//320
f 279//279 320//320 280//280
f 142//142 141//141 320//320
f 142//142 320//320 321//321
f 140//140 319//319 320//320
f 140//140 320//320 141//141
f 279//279 284//284 322//322
f 279//279 322//322 321//321
f 283//283 323//323 322//322
f 283//283 322//322 284//284
f 144//144 143//143 322//322
f 144//144 322//322 323//323
f 142//142 321//321 322//322
f 142//142 322//322 143//143
f 283//283 288//288 324//324
f 283//283 324//324 323//323
f 287//287 325//325 324//324
f 287//287 324//324 288//288
f 146//146 145//145 324//324
f 146//146 324//324 325//325
f 144//144 323//323 324//324
f 144//144 324//324 145//145
f 287//287 290//290 326//326
f 287//287 326//326 325//325
f 224//224 292//292 326//326
f 224//224 326//326 290//290
f 110//110 113//113 326//326
f 110//110 326//326 292//292
f 146//146 325//325 326//326
f 146//146 326//326 113//113
f 327//327 328//328 329//329
f 327//327 329//329 330//330
f 331//331 332//332 333//333
f 331//331 333//333 334//334
f 327//327 330//330 332//332
f 327//327 332//332 331//331
f 330//330 329//329 333//333
f 330//330 333//333 332//332
f 329//329 328//328 334//334
f 329//329 334//334 333//333
f 328//328 327//327 331//331
f 328//328 331//331 334//334
f 335//335 336//336 337//337
f 335//335 337//337 338//338
f 339//339 340//340 341//341
f 339//339 341//341 342//342
f 335//335 338//338 340//340
f 335//335 340//340 339//339
f 338//338 337//337 341//341
f 338//338 341//341 340//340
f 337//337 336//336 342//342
f 337//337 342//342 341//341
f 336//336 335//335 339//339
f 336//336 339//339 342//342
# 672 faces, 0 coords texture

# End of File