# this right here
# File Created: 29.01.2008 02:00:09

newmtl the_material
	Ns 10.0000
	Ni 1.5000
	d 0.49000
	Tr 0.49000
	Tf 1.0000 1.0000 1.0000 
	illum 2
	Ka 0.2235 0.1235 0.9235
	Kd 0.2235 0.1235 0.9235
	Ks 0.0000 0.0000 0.0000
	Ke 0.0000 0.0000 0.0000
