####
#
# OBJ File Generated by Meshlab
#
####
# Object 17.obj
#
# Vertices: 32
# Faces: 48
#
####
mtllib 17.mtl
usemtl the_material
vn 599.192993 -219.010620 -372.661102
v 234549.109375 414.447113 -25739.583984
vn 309.410126 109.505310 -721.682617
v 234549.109375 446.896515 -25739.583984
vn 599.192993 219.010620 396.300659
v 234549.109375 444.838104 -25730.048828
vn 289.782837 -109.505310 698.043091
v 234549.109375 414.447113 -25730.048828
vn -599.192993 -109.505310 -745.322205
v 234537.625000 414.447113 -25739.583984
vn -289.782837 -219.010620 349.021545
v 234537.625000 414.447113 -25730.048828
vn -599.192993 109.505310 721.682678
v 234537.625000 444.838104 -25730.048828
vn -309.410126 219.010620 -325.381989
v 234537.625000 446.896515 -25739.583984
vn 599.192993 -219.010620 -372.661102
v 234868.484375 414.447113 -25739.583984
vn 309.410126 109.505310 -721.682617
v 234868.484375 446.896515 -25739.583984
vn 599.192993 219.010620 396.300659
v 234868.484375 444.838104 -25730.048828
vn 289.782837 -109.505310 698.043091
v 234868.484375 414.447113 -25730.048828
vn -599.192993 -109.505310 -745.322205
v 234857.000000 414.447113 -25739.583984
vn -289.782837 -219.010620 349.021545
v 234857.000000 414.447113 -25730.048828
vn -599.192993 109.505310 721.682678
v 234857.000000 444.838104 -25730.048828
vn -309.410126 219.010620 -325.381989
v 234857.000000 446.896515 -25739.583984
vn 599.192993 -219.010620 -372.661102
v 234756.156250 414.447113 -25739.583984
vn 309.410126 109.505310 -721.682617
v 234756.156250 446.896515 -25739.583984
vn 599.192993 219.010620 396.300659
v 234756.156250 444.838104 -25730.048828
vn 289.782837 -109.505310 698.043091
v 234756.156250 414.447113 -25730.048828
vn -599.192993 -109.505310 -745.322205
v 234744.671875 414.447113 -25739.583984
vn -289.782837 -219.010620 349.021545
v 234744.671875 414.447113 -25730.048828
vn -599.192993 109.505310 721.682678
v 234744.671875 444.838104 -25730.048828
vn -309.410126 219.010620 -325.381989
v 234744.671875 446.896515 -25739.583984
vn 599.192993 -219.010620 -372.661102
v 234649.593750 414.447113 -25739.583984
vn 309.410126 109.505310 -721.682617
v 234649.593750 446.896515 -25739.583984
vn 599.192993 219.010620 396.300659
v 234649.593750 444.838104 -25730.048828
vn 289.782837 -109.505310 698.043091
v 234649.593750 414.447113 -25730.048828
vn -599.192993 -109.505310 -745.322205
v 234638.109375 414.447113 -25739.583984
vn -289.782837 -219.010620 349.021545
v 234638.109375 414.447113 -25730.048828
vn -599.192993 109.505310 721.682678
v 234638.109375 444.838104 -25730.048828
vn -309.410126 219.010620 -325.381989
v 234638.109375 446.896515 -25739.583984
# 32 vertices, 0 vertices normals

f 1//1 2//2 3//3
f 1//1 3//3 4//4
f 5//5 6//6 7//7
f 5//5 7//7 8//8
f 1//1 4//4 6//6
f 1//1 6//6 5//5
f 4//4 3//3 7//7
f 4//4 7//7 6//6
f 3//3 2//2 8//8
f 3//3 8//8 7//7
f 2//2 1//1 5//5
f 2//2 5//5 8//8
f 9//9 10//10 11//11
f 9//9 11//11 12//12
f 13//13 14//14 15//15
f 13//13 15//15 16//16
f 9//9 12//12 14//14
f 9//9 14//14 13//13
f 12//12 11//11 15//15
f 12//12 15//15 14//14
f 11//11 10//10 16//16
f 11//11 16//16 15//15
f 10//10 9//9 13//13
f 10//10 13//13 16//16
f 17//17 18//18 19//19
f 17//17 19//19 20//20
f 21//21 22//22 23//23
f 21//21 23//23 24//24
f 17//17 20//20 22//22
f 17//17 22//22 21//21
f 20//20 19//19 23//23
f 20//20 23//23 22//22
f 19//19 18//18 24//24
f 19//19 24//24 23//23
f 18//18 17//17 21//21
f 18//18 21//21 24//24
f 25//25 26//26 27//27
f 25//25 27//27 28//28
f 29//29 30//30 31//31
f 29//29 31//31 32//32
f 25//25 28//28 30//30
f 25//25 30//30 29//29
f 28//28 27//27 31//31
f 28//28 31//31 30//30
f 27//27 26//26 32//32
f 27//27 32//32 31//31
f 26//26 25//25 29//29
f 26//26 29//29 32//32
# 48 faces, 0 coords texture

# End of File