####
#
# OBJ File Generated by Meshlab
#
####
# Object d8.obj
#
# Vertices: 40
# Faces: 73
#
####
vn 14695.814453 0.000000 0.000000
v 234869.937500 60.289600 -26475.085938
vn 17288.929688 0.000000 0.000000
v 234869.937500 60.242901 -26391.330078
vn 8796.398438 0.000000 0.000000
v 234869.937500 244.289398 -26391.222656
vn 8904.056641 0.000000 0.000000
v 234869.937500 244.002899 -26475.525391
vn 355.577332 -62.394531 2.210968
v 234869.937500 225.585999 -26440.228516
vn 1909.654663 -38.167969 -4.361786
v 234869.937500 225.599792 -26426.246094
vn 1466.803955 -61.031250 -2.139618
v 234867.937500 225.599792 -26426.246094
vn 0.000000 -40.894531 4.339172
v 234867.937500 225.585999 -26440.228516
vn 194.075439 -13.890625 -10.138763
v 234869.937500 224.502502 -26423.695313
vn 2.655067 -14.597656 -8.361359
v 234867.937500 224.502396 -26423.695313
vn 231.178299 -8.699219 -17.154633
v 234869.937500 222.516403 -26421.498047
vn 282.012390 -10.941406 -14.535400
v 234867.937500 222.516403 -26421.498047
vn 1491.791504 -4.246094 -192.275970
v 234869.937500 219.220795 -26420.421875
vn 48.232132 -5.351563 -106.024811
v 234867.937500 219.220795 -26420.421875
vn 1383.750488 4.609375 -109.059174
v 234869.937500 172.799606 -26419.898438
vn 2686.997314 0.734375 -193.793152
v 234867.937500 172.799606 -26419.898438
vn 5761.398438 9.023438 -14.560638
v 234869.937500 168.745407 -26421.312500
vn 3.998365 8.753906 -19.442810
v 234867.937500 168.745407 -26421.312500
vn 552.063477 14.363281 -7.616028
v 234869.937500 167.132294 -26422.861328
vn 34.977417 11.828125 -8.647247
v 234867.937500 167.132401 -26422.861328
vn 652.225037 17.281250 -3.184784
v 234869.937500 166.034897 -26425.677734
vn 2.499298 17.089844 -4.884796
v 234867.937500 166.034897 -26425.677734
vn 1393.755371 24.386719 0.044006
v 234869.937500 165.787399 -26428.589844
vn 141.769562 20.929688 -0.720398
v 234867.937500 165.787399 -26428.589844
vn 0.238646 31.882813 0.720398
v 234869.937500 165.922104 -26433.230469
vn 7.148230 29.863281 0.764404
v 234867.937500 165.922195 -26433.230469
vn 1437.728271 26.386719 3.459229
v 234869.937500 166.034897 -26438.880859
vn 4.143301 30.144531 2.067810
v 234867.937500 166.034897 -26438.880859
vn 476.866211 14.535156 7.074768
v 234869.937500 166.843307 -26442.652344
vn 1438.545166 18.582031 5.962616
v 234867.937500 166.843307 -26442.652344
vn 120.892120 10.519531 16.672211
v 234869.937500 168.207794 -26444.400391
vn 3.697512 10.503906 12.429565
v 234867.937500 168.207794 -26444.400391
vn 16029.921875 3.511719 97.510803
v 234869.937500 171.693604 -26446.156250
vn 162.317917 7.023438 195.021606
v 234867.937500 171.693604 -26446.156250
vn 2557.731201 -1.617188 98.622986
v 234867.937500 216.963196 -26446.156250
vn 4.793421 -7.007813 23.173615
v 234867.937500 221.005096 -26445.347656
vn 131.735367 -14.011719 16.167816
v 234867.937500 224.508102 -26443.460938
vn 1470.100342 -3.234375 197.245972
v 234869.937500 216.963196 -26446.156250
vn 289.674500 -9.164063 22.095825
v 234869.937500 221.005096 -26445.347656
vn 246.680771 -16.703125 11.317596
v 234869.937500 224.508102 -26443.460938
# 40 vertices, 0 vertices normals

f 5//5 6//6 7//7
f 5//5 7//7 8//8
f 6//6 9//9 10//10
f 6//6 10//10 7//7
f 9//9 11//11 12//12
f 9//9 12//12 10//10
f 11//11 13//13 14//14
f 11//11 14//14 12//12
f 13//13 15//15 16//16
f 13//13 16//16 14//14
f 15//15 17//17 18//18
f 15//15 18//18 16//16
f 17//17 19//19 20//20
f 17//17 20//20 18//18
f 19//19 21//21 22//22
f 19//19 22//22 20//20
f 21//21 23//23 24//24
f 21//21 24//24 22//22
f 23//23 25//25 26//26
f 23//23 26//26 24//24
f 25//25 27//27 28//28
f 25//25 28//28 26//26
f 27//27 29//29 30//30
f 27//27 30//30 28//28
f 29//29 31//31 32//32
f 29//29 32//32 30//30
f 31//31 33//33 34//34
f 31//31 34//34 32//32
f 35//35 36//36 37//37
f 35//35 37//37 7//7
f 7//7 10//10 12//12
f 7//7 12//12 16//16
f 12//12 14//14 16//16
f 35//35 7//7 16//16
f 35//35 16//16 30//30
f 16//16 18//18 20//20
f 16//16 20//20 24//24
f 20//20 22//22 24//24
f 26//26 28//28 30//30
f 26//26 30//30 24//24
f 16//16 24//24 30//30
f 30//30 32//32 34//34
f 30//30 34//34 35//35
f 38//38 35//35 34//34
f 38//38 34//34 33//33
f 38//38 39//39 36//36
f 38//38 36//36 35//35
f 39//39 40//40 37//37
f 39//39 37//37 36//36
f 40//40 5//5 8//8
f 40//40 8//8 37//37
f 27//27 25//25 23//23
f 27//27 23//23 2//2
f 5//5 40//40 4//4
f 5//5 4//4 6//6
f 6//6 4//4 3//3
f 6//6 3//3 9//9
f 11//11 9//9 3//3
f 11//11 3//3 13//13
f 15//15 13//13 3//3
f 15//15 3//3 17//17
f 17//17 3//3 2//2
f 17//17 2//2 19//19
f 21//21 19//19 2//2
f 21//21 2//2 23//23
f 29//29 27//27 2//2
f 29//29 2//2 31//31
f 33//33 31//31 2//2
f 33//33 2//2 1//1
f 33//33 1//1 4//4
f 33//33 4//4 38//38
f 4//4 40//40 39//39
f 4//4 39//39 38//38
# 73 faces, 0 coords texture

# End of File