####
#
# OBJ File Generated by Meshlab
#
####
# Object s1.obj
#
# Vertices: 39
# Faces: 63
#
####
vn 617.196533 4036.148926 -992.519714
v 235427.875000 273.305511 -25873.160156
vn 354.320862 1402.898926 -714.611755
v 235427.875000 262.254211 -25886.878906
vn -325.883545 2130.664551 -1508.628052
v 235358.421875 262.227814 -25886.878906
vn -620.712280 5213.867676 317.602600
v 235358.421875 273.279114 -25873.160156
vn 601.027100 4261.057617 1495.389160
v 235427.875000 265.493408 -25842.484375
vn -603.456421 2130.528809 1363.053589
v 235358.421875 265.467010 -25842.484375
vn 179.742966 -2104.076904 833.708801
v 235427.875000 259.586700 -25842.484375
vn -177.343826 -4208.153809 436.699646
v 235358.421875 259.560303 -25842.484375
vn 929.702026 -5214.003418 463.168488
v 235427.875000 259.396210 -25872.779297
vn -926.156006 -4115.775879 886.646423
v 235358.421875 259.369812 -25872.779297
vn 190.416382 -2196.862061 979.283081
v 235427.875000 253.108398 -25887.261719
vn -129.593796 -1191.012573 542.574951
v 235358.421875 253.082001 -25887.261719
vn 29.824831 -185.163116 105.866844
v 235427.875000 251.584106 -25889.927734
vn 59.449287 225.044403 26.468830
v 235427.875000 262.635315 -25890.119141
vn -0.171168 450.088806 52.935539
v 235358.421875 262.608887 -25890.119141
vn 2217.644043 3203.299316 3308.367188
v 235427.875000 258.062408 -25847.056641
vn 1092.881836 1615.006714 -6656.439453
v 235427.875000 257.871887 -25869.921875
vn -1094.707642 3189.060547 -3348.063965
v 235358.421875 257.845490 -25869.921875
vn -2219.484863 1640.242310 6656.439941
v 235358.421875 258.036011 -25847.056641
vn 1125.964478 -1574.537598 6669.668945
v 235427.890625 210.046799 -25846.675781
vn -1124.138550 -3229.529541 3334.834473
v 235358.437500 210.020401 -25846.675781
vn 2220.093750 -3241.598145 -3321.604980
v 235427.890625 210.046799 -25870.113281
vn -2218.252441 -1601.943726 -6643.201172
v 235358.437500 210.020401 -25870.113281
vn 3.746696 648.410034 66.167839
v 235427.875000 254.251602 -25880.783203
vn 466.429626 264.673553 -6881.462402
v 235427.875000 254.251602 -25884.974609
vn -466.746399 568.763916 -3440.641846
v 235358.421875 254.225204 -25884.974609
vn -4.154107 423.501282 132.335678
v 235358.421875 254.225204 -25880.783203
vn 229.581268 119.317291 3176.051270
v 235427.875000 253.298904 -25879.830078
vn -229.641739 39.800903 6153.554688
v 235358.421875 253.272507 -25879.830078
vn 835.884094 2501.416992 6074.104004
v 235427.890625 209.475098 -25880.019531
vn -838.751221 5041.843750 3017.285156
v 235358.437500 209.448700 -25880.019531
vn 129.830704 5055.156738 224.965973
v 235427.890625 209.665695 -25843.626953
vn -132.712738 2527.578369 489.644745
v 235358.437500 209.639297 -25843.626953
vn 185.560547 -105.943146 595.511597
v 235427.890625 206.045395 -25843.626953
vn -185.439743 -211.886292 436.699677
v 235358.437500 206.018997 -25843.626953
vn 243.672440 -2964.373291 185.258499
v 235427.890625 204.711700 -25845.152344
vn -240.413147 -5610.916992 92.629250
v 235358.437500 204.685303 -25845.152344
vn 427.778473 -5518.193848 -3440.775879
v 235427.890625 204.711700 -25884.783203
vn -424.624817 -2779.148926 -6881.328613
v 235358.437500 204.685303 -25884.783203
# 39 vertices, 0 vertices normals

f 1//1 2//2 3//3
f 1//1 3//3 4//4
f 5//5 1//1 4//4
f 5//5 4//4 6//6
f 7//7 5//5 6//6
f 7//7 6//6 8//8
f 9//9 7//7 8//8
f 9//9 8//8 10//10
f 11//11 9//9 10//10
f 11//11 10//10 12//12
f 13//13 11//11 12//12
f 2//2 14//14 15//15
f 2//2 15//15 3//3
f 16//16 17//17 18//18
f 16//16 18//18 19//19
f 20//20 16//16 19//19
f 20//20 19//19 21//21
f 22//22 20//20 21//21
f 22//22 21//21 23//23
f 17//17 22//22 23//23
f 17//17 23//23 18//18
f 24//24 25//25 26//26
f 24//24 26//26 27//27
f 28//28 24//24 27//27
f 28//28 27//27 29//29
f 30//30 28//28 29//29
f 30//30 29//29 31//31
f 32//32 30//30 31//31
f 32//32 31//31 33//33
f 34//34 32//32 33//33
f 34//34 33//33 35//35
f 36//36 34//34 35//35
f 36//36 35//35 37//37
f 38//38 36//36 37//37
f 38//38 37//37 39//39
f 25//25 38//38 39//39
f 25//25 39//39 26//26
f 10//10 8//8 6//6
f 10//10 6//6 4//4
f 10//10 4//4 3//3
f 10//10 3//3 12//12
f 19//19 18//18 23//23
f 19//19 23//23 21//21
f 29//29 27//27 26//26
f 29//29 26//26 31//31
f 31//31 26//26 39//39
f 31//31 39//39 37//37
f 31//31 37//37 35//35
f 31//31 35//35 33//33
f 11//11 13//13 14//14
f 11//11 14//14 2//2
f 5//5 7//7 9//9
f 5//5 9//9 1//1
f 2//2 1//1 9//9
f 2//2 9//9 11//11
f 22//22 17//17 16//16
f 22//22 16//16 20//20
f 30//30 32//32 34//34
f 30//30 34//34 36//36
f 30//30 36//36 38//38
f 30//30 38//38 25//25
f 25//25 24//24 28//28
f 25//25 28//28 30//30
# 63 faces, 0 coords texture

# End of File